1 10 20
100 200 125
201 210 89
900 1000 174
752479 221 509
696268 910714 525
354315 647999 509
694441 917128 525
382055 780952 509
59161 516857 470
930688 535595 525
712099 610889 509
52359 537299 470
235721 375274 441
264571 665952 509
326549 920661 525
706678 72476 509
335703 580673 470
557324 493474 470
669364 559207 509
633373 717212 504
789698 670538 504
452827 181890 449
625053 799569 509
100951 338631 443
492135 667809 509
395011 8917 443
796471 391510 509
114836 344782 443
12908 689046 509
340394 346718 441
206726 102592 383
207926 631648 509
485217 925225 525
334967 561533 470
219095 857543 525
709029 195025 509
30434 966847 525
909741 946812 507
272291 472636 449
825309 824369 313
700463 932212 525
271473 519340 470
246780 337633 407
3080 48930 324
818057 505535 509
199966 223532 386
207307 846711 525
936128 60125 525
94972 369172 443
563280 354696 470
593272 759886 509
897817 25790 525
244818 580648 470
180754 313755 443
158326 491143 449
344898 464272 449
139770 563159 470
51525 986977 525
765379 171185 509
40903 734200 509
493047 803756 509
123475 438270 449
36952 327335 443
393449 400884 405
830547 951822 525
74857 304716 443
211282 835922 509
145528 358093 443
896691 465982 525
548922 622599 447
787155 318320 509
642788 530705 509
879741 389329 525
649928 519643 509
439383 968126 525
541596 101207 470
139713 49884 354
85966 472996 449
512531 2630 470
931204 677809 525
612302 142751 470
130933 377588 443
311652 738411 509
824361 104439 509
103308 28716 351
201444 311067 443
757442 959303 525
235676 695654 509
305823 945223 525
762123 15017 509
574818 831997 509
96731 378309 443
60361 777274 509
294968 429621 449
50472 838167 525
426534 998664 525
136313 708704 509
35491 506486 449
770859 846134 525
428935 461293 444
113246 522855 470
4116 39565 324
331610 202300 443
674119 434814 509
543235 604070 452
223569 173312 386
246840 892770 525
530946 596747 452
72180 376696 443
539318 881478 525
44340 514521 470
22117 274572 443
711944 359450 509
173319 750649 509
716669 952623 525
936675 772737 525
179096 489988 449
925467 252365 525
412486 865775 525
230802 605397 470
951619 325389 525
523049 632991 509
77874 738683 509
371787 805721 509
813020 334635 509
2803 20104 279
221687 256890 443
695243 885567 525
686730 269100 509
702970 834149 504
79980 831019 509
808375 94592 509
987465 772303 525
987822 400197 525
988999 50219 525
289173 345589 384
7584 34311 311
130242 310105 443
513825 901580 525
678572 609869 509
837464 696061 504
194877 420581 449
590231 331339 470
688617 766060 504
243433 349123 441
7070 501442 449
539695 643773 509
675866 878610 525
551307 750199 509
140716 329294 443
316543 292009 384
653306 544815 509
947461 703442 525
